00001,23/10/07 08:15,P001,05
00002,23/10/07 08:25,P002,10
00003,23/10/07 08:40,P003,08
00004,23/10/07 08:50,P004,05
00005,23/10/07 09:10,P005,16
00006,23/10/07 09:30,P001,12
00007,23/10/07 09:40,P002,09
00008,23/10/07 09:55,P003,08
00009,23/10/07 10:10,P004,14
00010,23/10/07 10:20,P005,05
00011,23/10/07 10:30,P001,13
00012,23/10/07 10:45,P002,12
00013,23/10/07 11:00,P003,07
00014,23/10/07 11:15,P004,15
00015,23/10/07 11:30,P005,04
00016,23/10/07 11:45,P001,09
00017,23/10/07 12:00,P002,10
00018,23/10/07 12:15,P003,06
00019,23/10/07 12:30,P004,17
00020,23/10/07 12:45,P005,18
00021,23/10/07 13:00,P001,11
00022,23/10/07 13:15,P002,14
00023,23/10/07 13:30,P003,16
00024,23/10/07 13:45,P004,09
00025,23/10/07 14:00,P005,03
00026,23/10/07 14:15,P001,07
00027,23/10/07 14:30,P002,15
00028,23/10/07 14:45,P003,19
00029,23/10/07 15:00,P004,02
00030,23/10/07 15:15,P005,12
00031,23/10/07 15:30,P001,06
00032,23/10/07 15:45,P002,10
00033,23/10/07 16:00,P003,20
00034,23/10/07 16:15,P004,13
00035,23/10/07 16:30,P005,14
00036,23/10/07 16:45,P001,08
00037,23/10/07 17:00,P002,04
00038,23/10/07 17:15,P003,11
00039,23/10/07 17:30,P004,09
00040,23/10/07 17:45,P005,15
00041,23/10/07 18:00,P001,17
00042,23/10/07 18:15,P002,18
00043,23/10/07 18:30,P003,16
00044,23/10/07 18:45,P004,05
00045,23/10/07 19:00,P005,13
00046,23/10/07 19:15,P001,12
00047,23/10/07 19:30,P002,07
00048,23/10/07 19:45,P003,10
00049,23/10/07 20:00,P004,06
00050,23/10/07 20:15,P005,11
